[
    {
    "name": "Aneto",
    "height": "3404",
    "prominence": "2812",
    "zone": "Maladeta-Aneto",
    "url": "https://upload.wikimedia.org/wikipedia/commons/thumb/9/93/Aneto_01.jpg/330px-Aneto_01.jpg",
    "country": "Spain"
    },
    {
    "name" : "Pico Posets",
    "height": "3375",
    "prominence": "1125",
    "zone": "Posets-Eriste",
    "url": "https://upload.wikimedia.org/wikipedia/commons/thumb/0/00/Pico_Posets_from_Forqueta.jpg/413px-Pico_Posets_from_Forqueta.jpg",
    "country": "Spain"
    },
    {
    "name" : "Monte Perdido",
    "height": "3355",
    "prominence": "970",
    "zone": "Macizo de Monte Perdido",
    "url": "https://upload.wikimedia.org/wikipedia/commons/thumb/d/d5/Macizo_perdido.jpg/330px-Macizo_perdido.jpg",
    "country": "Spain"
    },
    {
    "name" : "Punta d'Astorg",
    "height": "3355",
    "prominence": "153",
    "zone": "Maladeta-Aneto",
    "url": "https://upload.wikimedia.org/wikipedia/commons/thumb/9/9d/Punta_Astorg.jpg/330px-Punta_Astorg.jpg",
    "country": "Spain"
    },
    {
    "name" : "Pico Maldito",
    "height": "3350",
    "prominence": "20",
    "zone": "Maladeta-Aneto",
    "url": "https://upload.wikimedia.org/wikipedia/commons/thumb/7/71/Las_Espadas_Viados.jpg/330px-Las_Espadas_Viados.jpg",
    "country": "Spain"
    },
    {
    "name" : "Espalda del Aneto",
    "height": "3350",
    "prominence": "14",
    "zone": "Maladeta-Aneto",
    "url": "https://upload.wikimedia.org/wikipedia/commons/thumb/9/93/Aneto_01.jpg/330px-Aneto_01.jpg",
    "country": "Spain"
    },
    {
    "name" : "Pico del Medio",
    "height": "3346",
    "prominence": "13",
    "zone": "Maladeta-Aneto",
    "url": "https://upload.wikimedia.org/wikipedia/commons/thumb/4/4e/Pic_del_Mig.JPG/405px-Pic_del_Mig.JPG",
    "country": "Spain"
    },
    {
    "name" : "Pico Espadas",
    "height": "3332",
    "prominence": "77",
    "zone": "Posets-Eristé",
    "url": "https://upload.wikimedia.org/wikipedia/commons/7/71/Pico_Espadas_1.jpg",
    "country": "Spain"
    },
    {
    "name" : "Cilindro de Marboré",
    "height": "3325",
    "prominence": "251",
    "zone": "Macizo de Monte Perdido",
    "url": "https://upload.wikimedia.org/wikipedia/commons/thumb/7/72/450px-CILINDRO.JPG/413px-450px-CILINDRO.JPG",
    "country": "Spain"
    },
    {
    "name" : "La Maladeta",
    "height": "3312",
    "prominence": "107",
    "zone": "Maladeta-Aneto",
    "url": "https://upload.wikimedia.org/wikipedia/commons/thumb/3/35/Maladeta.jpg/413px-Maladeta.jpg",
    "country": "Spain"
    },
    {
    "name" : "Vignemale",
    "height": "3298",
    "prominence": "2812",
    "zone": "Macizo de Vignemale",
    "url": "https://upload.wikimedia.org/wikipedia/commons/thumb/d/db/Vignemale_Sommer.jpg/413px-Vignemale_Sommer.jpg",
    "country": "Spain - France"
    }
    ]